Advent of code 2020 day 2
…
12-10-2020

https://adventofcode.com/2020/day/2

Read the input data

file <- here("data", "input", "day2.txt")

x <- read_lines(file) 

df <- tibble(x)

df

# A tibble: 1,000 x 1
   x                         
   <chr>                     
 1 4-6 b: bbbdbtbbbj         
 2 1-6 g: ggvggbgggstg       
 3 1-4 s: lssss              
 4 13-14 v: hvvcvvvvvvvvvsvvv
 5 3-5 m: lcmmm              
 6 3-4 t: stht               
 7 5-6 b: dbkbhb             
 8 4-7 p: ppfppppq           
 9 4-5 j: jjjjj              
10 3-12 s: sskssssssssss     
# … with 990 more rows

df <- df %>% 
  separate(x, into = c("policy", "password"), sep = ":") %>% 
  mutate(across(where(is.character), str_squish)) %>% 
  separate(policy, into = c("min", "max", "letter"), sep = "-| ", convert = TRUE)

df

# A tibble: 1,000 x 4
     min   max letter password         
   <int> <int> <chr>  <chr>            
 1     4     6 b      bbbdbtbbbj       
 2     1     6 g      ggvggbgggstg     
 3     1     4 s      lssss            
 4    13    14 v      hvvcvvvvvvvvvsvvv
 5     3     5 m      lcmmm            
 6     3     4 t      stht             
 7     5     6 b      dbkbhb           
 8     4     7 p      ppfppppq         
 9     4     5 j      jjjjj            
10     3    12 s      sskssssssssss    
# … with 990 more rows
…
